mips_2.vcd
$date
	Sun Jan 05 10:42:08 2025
$end
$version
	Icarus Verilog
$end
$timescale
	1s
$end
$scope module test_mips32 $end
$var reg 1 ! clk1 $end
$var reg 1 " clk2 $end
$var integer 32 # k [31:0] $end
$scope module mips $end
$var wire 1 $ clk1 $end
$var wire 1 % clk2 $end
$var reg 32 & EX_MEM_ALUOut [31:0] $end
$var reg 32 ' EX_MEM_B [31:0] $end
$var reg 32 ( EX_MEM_IR [31:0] $end
$var reg 1 ) EX_MEM_cond $end
$var reg 3 * EX_MEM_type [2:0] $end
$var reg 1 + HALTED $end
$var reg 32 , ID_EX_A [31:0] $end
$var reg 32 - ID_EX_B [31:0] $end
$var reg 32 . ID_EX_IR [31:0] $end
$var reg 32 / ID_EX_Imm [31:0] $end
$var reg 32 0 ID_EX_NPC [31:0] $end
$var reg 3 1 ID_EX_type [2:0] $end
$var reg 32 2 IF_ID_IR [31:0] $end
$var reg 32 3 IF_ID_NPC [31:0] $end
$var reg 32 4 MEM_WB_ALUOut [31:0] $end
$var reg 32 5 MEM_WB_IR [31:0] $end
$var reg 32 6 MEM_WB_LMD [31:0] $end
$var reg 3 7 MEM_WB_type [2:0] $end
$var reg 32 8 PC [31:0] $end
$var reg 1 9 TAKEN_BRANCH $end
$upscope $end
$upscope $end
$enddefinitions $end
#0
$dumpvars
09
b0 8
bx 7
bx 6
bx 5
bx 4
bx 3
bx 2
bx 1
bx 0
bx /
bx .
bx -
bx ,
0+
bx *
x)
bx (
bx '
bx &
0%
0$
b11111 #
0"
0!
$end
#5
1!
1$
#7
b1 8
b1 3
b101000000000010000000001111000 2
#10
0!
0$
#15
b0 ,
1"
1%
#17
b1 1
b1111000 /
b101000000000010000000001111000 .
b1 0
b1 -
#20
0"
0%
#25
1!
1$
#27
b1111000 &
b101000000000010000000001111000 (
b1 *
b10 8
b10 3
b1100011000110001100000000000 2
#30
0!
0$
#35
b1 7
1"
1%
#37
b1111000 4
b101000000000010000000001111000 5
b0 1
b1100000000000 /
b1100011000110001100000000000 .
b10 0
b11 -
b11 ,
#40
0"
0%
#45
1!
1$
#47
b11 8
b11 3
b100000001000100000000000000000 2
b11 &
b1100011000110001100000000000 (
b0 *
#50
0!
0$
#55
b0 7
1"
1%
#57
b101 1
b0 /
b100000001000100000000000000000 .
b11 0
b10 -
b1111000 ,
b11 4
b1100011000110001100000000000 5
#60
0"
0%
#65
1!
1$
#67
b100000001000100000000000000000 (
b101 *
b100 8
b100 3
b1100011000110001100000000000 2
#70
0!
0$
#75
b101 7
1"
1%
#77
b100000001000100000000000000000 5
b0 1
b1100000000000 /
b1100011000110001100000000000 .
b100 0
b11 -
b11 ,
#80
0"
0%
#85
1!
1$
#87
b101 8
b101 3
b101000010000100000000000101101 2
b1100011000110001100000000000 (
b0 *
1+
